[gd_resource type="AudioBusLayout" load_steps=4 format=2]

[sub_resource type="AudioEffectLowPassFilter" id=1]
resource_name = "LowPassFilter"
cutoff_hz = 500.0

[sub_resource type="AudioEffectLowPassFilter" id=2]
resource_name = "LowPassFilter"
cutoff_hz = 1000.0

[sub_resource type="AudioEffectAmplify" id=3]
resource_name = "Amplify"
volume_db = 10.0

[resource]
bus/1/name = "sfx"
bus/1/solo = false
bus/1/mute = false
bus/1/bypass_fx = false
bus/1/volume_db = 6.02
bus/1/send = "Master"
bus/1/effect/0/effect = SubResource( 1 )
bus/1/effect/0/enabled = true
bus/1/effect/1/effect = SubResource( 2 )
bus/1/effect/1/enabled = true
bus/1/effect/2/effect = SubResource( 3 )
bus/1/effect/2/enabled = false
bus/2/name = "screams"
bus/2/solo = false
bus/2/mute = false
bus/2/bypass_fx = false
bus/2/volume_db = 0.0
bus/2/send = "sfx"
